<?xml version="1.0" encoding="UTF-8" standalone="no"?>
<svg
   xmlns:dc="http://purl.org/dc/elements/1.1/"
   xmlns:cc="http://creativecommons.org/ns#"
   xmlns:rdf="http://www.w3.org/1999/02/22-rdf-syntax-ns#"
   xmlns:svg="http://www.w3.org/2000/svg"
   xmlns="http://www.w3.org/2000/svg"
   xmlns:sodipodi="http://sodipodi.sourceforge.net/DTD/sodipodi-0.dtd"
   xmlns:inkscape="http://www.inkscape.org/namespaces/inkscape"
   enable-background="new 0 0 346.9 85.1"
   viewBox="0 0 62.8 85.1"
   version="1.1"
   id="svg26"
   sodipodi:docname="BluetoothLogo.svg"
   width="62.799999"
   height="85.099998"
   inkscape:version="0.92.1 r15371">
  <metadata
     id="metadata32">
    <rdf:RDF>
      <cc:Work
         rdf:about="">
        <dc:format>image/svg+xml</dc:format>
        <dc:type
           rdf:resource="http://purl.org/dc/dcmitype/StillImage" />
        <dc:title></dc:title>
      </cc:Work>
    </rdf:RDF>
  </metadata>
  <defs
     id="defs30" />
  <sodipodi:namedview
     pagecolor="#ffffff"
     bordercolor="#666666"
     borderopacity="1"
     objecttolerance="10"
     gridtolerance="10"
     guidetolerance="10"
     inkscape:pageopacity="0"
     inkscape:pageshadow="2"
     inkscape:window-width="960"
     inkscape:window-height="990"
     id="namedview28"
     showgrid="false"
     fit-margin-top="0"
     fit-margin-left="0"
     fit-margin-right="0"
     fit-margin-bottom="0"
     inkscape:zoom="0.91957338"
     inkscape:cx="173.45"
     inkscape:cy="42.550001"
     inkscape:window-x="0"
     inkscape:window-y="90"
     inkscape:window-maximized="0"
     inkscape:current-layer="svg26" />
  <ellipse
     cx="31.4"
     cy="42.200001"
     rx="24.299999"
     ry="40.200001"
     id="ellipse22"
     style="clip-rule:evenodd;fill:#ffffff;fill-rule:evenodd" />
  <path
     d="m 34.8,21 7,7 -7,7 z m 0,43.1 7,-7 -7,-7 z M 27.3,42.6 12.1,27.3 16.5,22.9 28.6,35 V 6 l 22,22 -14.5,14.6 14.6,14.6 -22,22 V 50.1 L 16.5,62.2 12.1,57.8 Z m 4.1,42.5 C 50,85.1 62.8,76.3 62.8,42.5 62.8,8.8 50,0 31.4,0 12.8,0 0,8.8 0,42.6 0,76.3 12.8,85.1 31.4,85.1 Z"
     id="path24"
     inkscape:connector-curvature="0"
     style="clip-rule:evenodd;fill:#0082fc;fill-rule:evenodd" />
</svg>
